[
  {
    "sql_file": "query_files/CommerceAEs.sql",
    "filepath": "~/Git/CSV_In/CommerceAEs.csv",
    "status": "active"
  },
  {
    "sql_file": "query_files/CompanyCount.sql",
    "filepath": "~/Git/CSV_In/CompanyCount.csv",
    "status": "active"
  },
  {
    "sql_file": "query_files/GlobalCompanyCount.sql",
    "filepath": "~/Git/CSV_In/GlobalCompanyCount.csv",
    "status": "active"
  },
  {
    "sql_file": "query_files/MarketingAEs.sql",
    "filepath": "~/Git/CSV_In/MarketingAEs.csv",
    "status": "active"
  },
  {
    "sql_file": "query_files/NonprofitAEs.sql",
    "filepath": "~/Git/CSV_In/NonprofitAEs.csv",
    "status": "active"
  },
  {
    "sql_file": "query_files/QuipAEs.sql",
    "filepath": "~/Git/CSV_In/QuipAEs.csv",
    "status": "active"
  },
  {
    "sql_file": "query_files/HLS Variables v8.sql",
    "filepath": "~/Git/CSV_In/HLSInfo.csv",
    "status": "active"
  }
]